Solar Power
…
## Explore the other data sets

capcity

Starting with capacity, units are in gigawatts:

capacity

## # A tibble: 49 x 7
##    type   year standalone_prior hybrid_prior standalone_new hybrid_new total_gw
##    <chr> <dbl>            <dbl>        <dbl>          <dbl>      <dbl>    <dbl>
##  1 Solar  2014             25.1          0             19.5        0       44.6
##  2 Solar  2015             33.1          0             23.8        0       56.8
##  3 Solar  2016             37.0          0             83.3        0      120. 
##  4 Solar  2017             83.6          0            105.         0      189. 
##  5 Solar  2018            138.          11.6          116.        17.7    283. 
##  6 Solar  2019            156.          43.0          110.        58.6    367. 
##  7 Solar  2020            196.          96.0          108.        63.3    462. 
##  8 Wind   2014             66.7          0             29.2        0       95.9
##  9 Wind   2015             65.0          0             44.6        0      110. 
## 10 Wind   2016             74.8          0             66.9        0      142. 
## # ... with 39 more rows

Again, the data must be reshaped.

capacity_long <- capacity %>%
  pivot_longer(
    cols=standalone_prior:hybrid_new,
    names_to = "category",
    values_to = "gigawatts",
    values_drop_na = TRUE)

capacity_long

## # A tibble: 148 x 5
##    type   year total_gw category         gigawatts
##    <chr> <dbl>    <dbl> <chr>                <dbl>
##  1 Solar  2014     44.6 standalone_prior      25.1
##  2 Solar  2014     44.6 hybrid_prior           0  
##  3 Solar  2014     44.6 standalone_new        19.5
##  4 Solar  2014     44.6 hybrid_new             0  
##  5 Solar  2015     56.8 standalone_prior      33.1
##  6 Solar  2015     56.8 hybrid_prior           0  
##  7 Solar  2015     56.8 standalone_new        23.8
##  8 Solar  2015     56.8 hybrid_new             0  
##  9 Solar  2016    120.  standalone_prior      37.0
## 10 Solar  2016    120.  hybrid_prior           0  
## # ... with 138 more rows
…
Now lets do a side-by-side split multiple, split on new and
prior.

#separate(mytext, sep = " ", into = c("col1","col2"), remove = FALSE)

capacity_long_sep<- capacity_long %>%
  separate(category,sep="_",into = c("type","time"), remove = TRUE)

capacity_long_sep

## # A tibble: 148 x 5
##     year total_gw gigawatts type       time 
##    <dbl>    <dbl>     <dbl> <chr>      <chr>
##  1  2014     44.6      25.1 standalone prior
##  2  2014     44.6       0   hybrid     prior
##  3  2014     44.6      19.5 standalone new  
##  4  2014     44.6       0   hybrid     new  
##  5  2015     56.8      33.1 standalone prior
##  6  2015     56.8       0   hybrid     prior
##  7  2015     56.8      23.8 standalone new  
##  8  2015     56.8       0   hybrid     new  
##  9  2016    120.       37.0 standalone prior
## 10  2016    120.        0   hybrid     prior
## # ... with 138 more rows
…
### solar

solar

## # A tibble: 328 x 3
##    date       solar_mwh solar_capacity
##    <date>         <dbl>          <dbl>
##  1 2009-02-23      132.           30  
##  2 2009-03-01      160.           30  
##  3 2009-03-05      151.           19  
##  4 2009-05-01      210.           12.6
##  5 2009-05-08      143.          230  
##  6 2009-06-01      131.           20  
##  7 2009-06-01      202.           14  
##  8 2009-06-01      228.           10.1
##  9 2009-06-22      166.           48  
## 10 2009-08-17      146.          250  
## # ... with 318 more rows
…
There must be a way to combine the wind and
solar datasets.

solar

## # A tibble: 328 x 3
##    date       solar_mwh solar_capacity
##    <date>         <dbl>          <dbl>
##  1 2009-02-23      132.           30  
##  2 2009-03-01      160.           30  
##  3 2009-03-05      151.           19  
##  4 2009-05-01      210.           12.6
##  5 2009-05-08      143.          230  
##  6 2009-06-01      131.           20  
##  7 2009-06-01      202.           14  
##  8 2009-06-01      228.           10.1
##  9 2009-06-22      166.           48  
## 10 2009-08-17      146.          250  
## # ... with 318 more rows

wind

## # A tibble: 328 x 3
##    date       wind_mwh wind_capacity
##    <date>        <dbl>         <dbl>
##  1 2009-01-28     54.1          50.4
##  2 2009-01-30     62.3          98.9
##  3 2009-02-02     52.5          99  
##  4 2009-02-05     93.8         150  
##  5 2009-02-05     96.5          51  
##  6 2009-02-05     96.5          49.5
##  7 2009-02-19     93.8          49.5
##  8 2009-03-17    116.            8  
##  9 2009-03-17    119.           24.8
## 10 2009-03-24     88.8          63  
## # ... with 318 more rows
…
The dates dont match 1 to 1. Make them both long tables and then
merge on dates.

wind_long <- wind %>%
  pivot_longer(
    cols = wind_mwh:wind_capacity,
    names_to = "category",
    values_to = "value",
    values_drop_na = TRUE
  )

wind_long

## # A tibble: 656 x 3
##    date       category      value
##    <date>     <chr>         <dbl>
##  1 2009-01-28 wind_mwh       54.1
##  2 2009-01-28 wind_capacity  50.4
##  3 2009-01-30 wind_mwh       62.3
##  4 2009-01-30 wind_capacity  98.9
##  5 2009-02-02 wind_mwh       52.5
##  6 2009-02-02 wind_capacity  99  
##  7 2009-02-05 wind_mwh       93.8
##  8 2009-02-05 wind_capacity 150  
##  9 2009-02-05 wind_mwh       96.5
## 10 2009-02-05 wind_capacity  51  
## # ... with 646 more rows

solar_long <- solar %>%
  pivot_longer(
    cols = solar_mwh:solar_capacity,
    names_to = "category",
    values_to = "value",
    values_drop_na = TRUE
  )

solar_long

## # A tibble: 656 x 3
##    date       category       value
##    <date>     <chr>          <dbl>
##  1 2009-02-23 solar_mwh      132. 
##  2 2009-02-23 solar_capacity  30  
##  3 2009-03-01 solar_mwh      160. 
##  4 2009-03-01 solar_capacity  30  
##  5 2009-03-05 solar_mwh      151. 
##  6 2009-03-05 solar_capacity  19  
##  7 2009-05-01 solar_mwh      210. 
##  8 2009-05-01 solar_capacity  12.6
##  9 2009-05-08 solar_mwh      143. 
## 10 2009-05-08 solar_capacity 230  
## # ... with 646 more rows

wind_and_solar_long <- bind_rows(wind_long,solar_long)

wind_and_solar_long

## # A tibble: 1,312 x 3
##    date       category      value
##    <date>     <chr>         <dbl>
##  1 2009-01-28 wind_mwh       54.1
##  2 2009-01-28 wind_capacity  50.4
##  3 2009-01-30 wind_mwh       62.3
##  4 2009-01-30 wind_capacity  98.9
##  5 2009-02-02 wind_mwh       52.5
##  6 2009-02-02 wind_capacity  99  
##  7 2009-02-05 wind_mwh       93.8
##  8 2009-02-05 wind_capacity 150  
##  9 2009-02-05 wind_mwh       96.5
## 10 2009-02-05 wind_capacity  51  
## # ... with 1,302 more rows
…
Nope, we need to split up category.

#separate(coltosplitgoeshere, sep = " ", into = c("col1","col2",...,"coln"), remove = TRUE)

wind_and_solar_long_sep <- wind_and_solar_long %>%
  separate(category,
           sep="_",
           into= c("power source","type"),
           remove=TRUE
           )

wind_and_solar_long_sep

## # A tibble: 1,312 x 4
##    date       `power source` type     value
##    <date>     <chr>          <chr>    <dbl>
##  1 2009-01-28 wind           mwh       54.1
##  2 2009-01-28 wind           capacity  50.4
##  3 2009-01-30 wind           mwh       62.3
##  4 2009-01-30 wind           capacity  98.9
##  5 2009-02-02 wind           mwh       52.5
##  6 2009-02-02 wind           capacity  99  
##  7 2009-02-05 wind           mwh       93.8
##  8 2009-02-05 wind           capacity 150  
##  9 2009-02-05 wind           mwh       96.5
## 10 2009-02-05 wind           capacity  51  
## # ... with 1,302 more rows
…
