…
Starting with capacity, units are in gigawatts:


```r
capacity
```

```
## # A tibble: 49 x 7
##    type   year standalone_prior hybrid_prior standalone_new hybrid_new total_gw
##    <chr> <dbl>            <dbl>        <dbl>          <dbl>      <dbl>    <dbl>
##  1 Solar  2014             25.1          0             19.5        0       44.6
##  2 Solar  2015             33.1          0             23.8        0       56.8
##  3 Solar  2016             37.0          0             83.3        0      120. 
##  4 Solar  2017             83.6          0            105.         0      189. 
##  5 Solar  2018            138.          11.6          116.        17.7    283. 
##  6 Solar  2019            156.          43.0          110.        58.6    367. 
##  7 Solar  2020            196.          96.0          108.        63.3    462. 
##  8 Wind   2014             66.7          0             29.2        0       95.9
##  9 Wind   2015             65.0          0             44.6        0      110. 
## 10 Wind   2016             74.8          0             66.9        0      142. 
## # ... with 39 more rows
```
Again, the data must be reshaped.

```r
capacity_long <- capacity %>%
  pivot_longer(
    cols=standalone_prior:hybrid_new,
    names_to = "category",
    values_to = "gigawatts",
    values_drop_na = TRUE)

capacity_long
```

```
## # A tibble: 148 x 5
##    type   year total_gw category         gigawatts
##    <chr> <dbl>    <dbl> <chr>                <dbl>
##  1 Solar  2014     44.6 standalone_prior      25.1
##  2 Solar  2014     44.6 hybrid_prior           0  
##  3 Solar  2014     44.6 standalone_new        19.5
##  4 Solar  2014     44.6 hybrid_new             0  
##  5 Solar  2015     56.8 standalone_prior      33.1
##  6 Solar  2015     56.8 hybrid_prior           0  
##  7 Solar  2015     56.8 standalone_new        23.8
##  8 Solar  2015     56.8 hybrid_new             0  
##  9 Solar  2016    120.  standalone_prior      37.0
## 10 Solar  2016    120.  hybrid_prior           0  
## # ... with 138 more rows
```
…
